{
  "version": "1.0.0-*",

  "dependencies": {
    "AutoMapper": "5.2.0",
    "DAL": "1.0.0-*",
    "NETStandard.Library": "1.6.0"
  },

  "frameworks": {
    "netstandard1.6": {
      "imports": "dnxcore50"
    }
  }
}
